<svg id="filter" xmlns="http://www.w3.org/2000/svg" width="16" height="16" viewBox="0 0 16 16">
  <path id="Path_5328" data-name="Path 5328" d="M13.126,0H2.874A2.877,2.877,0,0,0,0,2.874V13.126A2.877,2.877,0,0,0,2.874,16H13.126A2.877,2.877,0,0,0,16,13.126V2.874A2.877,2.877,0,0,0,13.126,0Zm.4,12.486H8.394a1.476,1.476,0,0,1-2.8,0H2.478a.471.471,0,0,1,0-.941H5.6a1.476,1.476,0,0,1,2.8,0h5.128A.471.471,0,0,1,13.522,12.486Zm0-4.016H12.409a1.476,1.476,0,0,1-2.8,0H2.478a.471.471,0,0,1,0-.941H9.614a1.476,1.476,0,0,1,2.8,0h1.112A.471.471,0,0,1,13.522,8.471Zm0-4.016H6.386a1.476,1.476,0,0,1-2.8,0H2.478a.471.471,0,0,1,0-.941H3.591a1.476,1.476,0,0,1,2.8,0h7.136a.471.471,0,0,1,0,.941Z" transform="translate(0 0)" fill="#b1748b"/>
  <path id="Path_5329" data-name="Path 5329" d="M207.473,367.435a.533.533,0,0,0,0,1.067A.533.533,0,0,0,207.473,367.435Z" transform="translate(-200.477 -355.953)" fill="#b1748b"/>
  <path id="Path_5330" data-name="Path 5330" d="M143.222,110.431a.533.533,0,0,0,0,1.067A.533.533,0,0,0,143.222,110.431Z" transform="translate(-138.234 -106.98)" fill="#b1748b"/>
  <path id="Path_5331" data-name="Path 5331" d="M335.974,238.933a.533.533,0,0,0,0,1.067A.533.533,0,0,0,335.974,238.933Z" transform="translate(-324.962 -231.466)" fill="#b1748b"/>
</svg>
